6.1 Preparation Steps | CMSC 208 Final Project
…
6.1.2 Data Spliting

set.seed(013123)

index <- createDataPartition(y = ames$Sale_Price, p = 0.8, list = FALSE)   # consider 80-20 split

ames_train <- ames[index,]   # training data

ames_test <- ames[-index,]   # test data

# investigate nominal categorical predictors 

ames_train %>% count(Neighborhood) %>% arrange(n)   # check frequency of categories

## # A tibble: 26 × 2
##    Neighborhood            n
##    <fct>               <int>
##  1 Northpark_Villa         2
##  2 Blueste                 2
##  3 Greens                  4
##  4 Veenker                 6
##  5 Bloomington_Heights     7
##  6 Briardale               8
##  7 Clear_Creek            11
##  8 Meadow_Village         12
##  9 Stone_Brook            13
## 10 Timberland             14
## # … with 16 more rows
